<?xml version="1.0" encoding="UTF-8"?>
<svg width="36px" height="46px" viewBox="0 0 36 46" version="1.1" xmlns="http://www.w3.org/2000/svg" xmlns:xlink="http://www.w3.org/1999/xlink">
    <!-- Generator: Sketch 47.1 (45422) - http://www.bohemiancoding.com/sketch -->
    <title>Group 2</title>
    <desc>Created with Sketch.</desc>
    <defs></defs>
    <g id="Page-1" stroke="none" stroke-width="1" fill="none" fill-rule="evenodd">
        <g id="PFPP-/-SF-v1-Copy-35" transform="translate(-494.000000, -298.000000)" fill-rule="nonzero" fill="#AAA20A">
            <g id="loading" transform="translate(447.000000, 256.000000)">
                <g id="Group-2" transform="translate(47.000000, 42.000000)">
                    <path d="M31.0909091,17.1332963 L31.0909091,12.3518519 C31.0909091,5.5412963 25.218,0 18,0 C10.782,0 4.90909091,5.5412963 4.90909091,12.3518519 L4.90909091,17.1332963 C2.12645455,17.6324815 0,20.1573704 0,23.1959259 L0,39.8428148 C0,43.2374444 2.65336364,46 5.91463636,46 L30.0853636,46 C33.3466364,46 36,43.2374444 36,39.841963 L36,23.1950741 C36,20.1573704 33.8735455,17.6324815 31.0909091,17.1332963 Z M6.54545455,12.3518519 C6.54545455,6.48003704 11.6836364,1.7037037 18,1.7037037 C24.3163636,1.7037037 29.4545455,6.48003704 29.4545455,12.3518519 L29.4545455,17.037037 L6.54545455,17.037037 L6.54545455,12.3518519 Z M34.3636364,39.841963 C34.3636364,42.2978519 32.4441818,44.2962963 30.0853636,44.2962963 L5.91463636,44.2962963 C3.55581818,44.2962963 1.63636364,42.2978519 1.63636364,39.841963 L1.63636364,23.1950741 C1.63636364,20.7391852 3.55581818,18.7407407 5.91463636,18.7407407 L30.0853636,18.7407407 C32.4441818,18.7407407 34.3636364,20.7391852 34.3636364,23.1950741 L34.3636364,39.841963 Z" id="Shape"></path>
                    <path d="M17,24 C15.3455,24 14,25.5377143 14,27.4285714 L14,32.5714286 C14,34.4622857 15.3455,36 17,36 C18.6545,36 20,34.4622857 20,32.5714286 L20,27.4285714 C20,25.5377143 18.6545,24 17,24 Z M18.5,32.5714286 C18.5,33.5168571 17.82725,34.2857143 17,34.2857143 C16.17275,34.2857143 15.5,33.5168571 15.5,32.5714286 L15.5,27.4285714 C15.5,26.4831429 16.17275,25.7142857 17,25.7142857 C17.82725,25.7142857 18.5,26.4831429 18.5,27.4285714 L18.5,32.5714286 Z" id="Shape"></path>
                </g>
            </g>
        </g>
    </g>
</svg>